golemverse - About Designing & Prototyping shiny apps
…
{fakir}

{shinipsum} creates fake UI elements, {fakir} creates fake datasets.

You can install it with:

pak::pak("fakir")

With this package, we’ve aimed at mimicking “real life” datasets, so that you can use them in case you need to simulate inputs, models, backend elements, and others, before having access to DB and/or real datasets.

Here is for example a fake dataset of visits on a website:

fakir::fake_visits()

# A tibble: 365 × 8
   timestamp   year month   day  home about  blog contact
 * <date>     <dbl> <dbl> <int> <int> <int> <int>   <int>
 1 2017-01-01  2017     1     1    NA    64   446     145
 2 2017-01-02  2017     1     2   159   102   487     250
 3 2017-01-03  2017     1     3    NA    59   479     433
 4 2017-01-04  2017     1     4   123   202   601     109
 5 2017-01-05  2017     1     5   362   162   311     378
 6 2017-01-06  2017     1     6    NA   244   450     350
 7 2017-01-07  2017     1     7    NA   298   343     232
 8 2017-01-08  2017     1     8   461   121   389     122
 9 2017-01-09  2017     1     9   337   171    NA     150
10 2017-01-10  2017     1    10   155   151   515      NA
# ℹ 355 more rows
…
