golemverse - {fakir} 1.0.0 is now on CRAN
…
Fake website visits

fakir::fake_visits(
  from = "2017-01-01",
  to = "2017-01-31"
)

# A tibble: 31 × 8
   timestamp   year month   day  home about  blog contact
 * <date>     <dbl> <dbl> <int> <int> <int> <int>   <int>
 1 2017-01-01  2017     1     1   369   220   404     210
 2 2017-01-02  2017     1     2   159   250   414     490
 3 2017-01-03  2017     1     3   436   170   498     456
 4 2017-01-04  2017     1     4    NA   258   526     392
 5 2017-01-05  2017     1     5   362    NA   407     291
 6 2017-01-06  2017     1     6   245   145   576      90
 7 2017-01-07  2017     1     7    NA    NA   484     167
 8 2017-01-08  2017     1     8   461   103   441      NA
 9 2017-01-09  2017     1     9   337   113   673     379
10 2017-01-10  2017     1    10    NA   169   308     139
# ℹ 21 more rows
…
Feedback

If you discover any bug or have any feedback on the dataset generators, feel free to open an issue on the repo.

Translate

Some datasets are available in french and english:

fakir::fake_visits(
  from = "2017-01-01",
  to = "2017-01-31",
  local = "fr_FR"
)

# A tibble: 31 × 8
   dates         an  mois  jour accueil a_propos  blog contact
 * <date>     <dbl> <dbl> <int>   <int>    <int> <int>   <int>
 1 2017-01-01  2017     1     1     369      220   404     210
 2 2017-01-02  2017     1     2     159      250   414     490
 3 2017-01-03  2017     1     3     436      170   498     456
 4 2017-01-04  2017     1     4      NA      258   526     392
 5 2017-01-05  2017     1     5     362       NA   407     291
 6 2017-01-06  2017     1     6     245      145   576      90
 7 2017-01-07  2017     1     7      NA       NA   484     167
 8 2017-01-08  2017     1     8     461      103   441      NA
 9 2017-01-09  2017     1     9     337      113   673     379
10 2017-01-10  2017     1    10      NA      169   308     139
# ℹ 21 more rows
…
